stat
…
laureates <- laureates |>
  pivot_longer(
    cols = -Year, 
    names_to = "Category",
    values_to = "Laureates"  # Create a new column for the laureates
  ) |>
  separate_rows(Laureates, sep = ";") |>
  filter(!grepl("—", Laureates))

laureates

# A tibble: 1,055 × 3
    Year Category               Laureates                   
   <dbl> <chr>                  <chr>                       
 1  1901 Physics                Wilhelm Röntgen             
 2  1901 Chemistry              Jacobus Henricus van 't Hoff
 3  1901 Physiology or Medicine Emil von Behring            
 4  1901 Literature             Sully Prudhomme             
 5  1901 Peace                  Henry Dunant                
 6  1901 Peace                  Frédéric Passy              
 7  1902 Physics                Hendrik Lorentz             
 8  1902 Physics                Pieter Zeeman               
 9  1902 Chemistry              Emil Fischer                
10  1902 Physiology or Medicine Ronald Ross                 
# ℹ 1,045 more rows
…
counts <- counts |>
  mutate(Organization = 0) |>
  mutate(Organization = ifelse(Year %in% c(1904, 1910, 1917,
                                         1944, 1947, 1938) & Category == "Peace", 1, Organization),
         Organization = ifelse(Year == 1963 & Category == "Peace", 2, Organization),
         Male = Total - (Female + Organization)) 

counts <- counts |>
  pivot_longer(cols = c(Female, Total, Organization, Male), 
               names_to = "CountType", 
               values_to = "Count")

counts

# A tibble: 2,704 × 4
# Groups:   Year [124]
    Year Category   CountType    Count
   <dbl> <chr>      <chr>        <dbl>
 1  1901 Chemistry  Female           0
 2  1901 Chemistry  Total            1
 3  1901 Chemistry  Organization     0
 4  1901 Chemistry  Male             1
 5  1901 Literature Female           0
 6  1901 Literature Total            1
 7  1901 Literature Organization     0
 8  1901 Literature Male             1
 9  1901 Peace      Female           0
10  1901 Peace      Total            2
# ℹ 2,694 more rows
…
proportions <- count_fil |>
  group_by(Year) |>
  summarise(Female_prop = sum(Count[CountType == "Female"]) / sum(Count),
            Male_prop = sum(Count[CountType == "Male"]) / sum(Count),
            Org_prop = sum(Count[CountType == "Organization"]) / sum(Count))

count_fil

# A tibble: 2,028 × 4
# Groups:   Year [124]
    Year Category   CountType    Count
   <dbl> <chr>      <chr>        <dbl>
 1  1901 Chemistry  Female           0
 2  1901 Chemistry  Organization     0
 3  1901 Chemistry  Male             1
 4  1901 Literature Female           0
 5  1901 Literature Organization     0
 6  1901 Literature Male             1
 7  1901 Peace      Female           0
 8  1901 Peace      Organization     0
 9  1901 Peace      Male             2
10  1901 Physics    Female           0
# ℹ 2,018 more rows
…
